,epoch,d_loss,accuracy,g_loss
0,0.0,0.6486247711306073,67.15931056701031,1.5222117390829264
1,1.0,0.6194965836313582,69.54333118556701,1.2818096415283753
2,2.0,0.6799022131359455,57.87491945876289,1.0032552204181238
3,3.0,0.6823297003188085,56.22583762886598,0.9347410029971722
4,4.0,0.6475807277812171,64.2235824742268,0.9773095397605109
5,5.0,0.6642845360581408,62.1556862113402,0.938001045861195
6,6.0,0.6490261360388441,63.73228092783505,0.9559819710623357
7,7.0,0.6544235815706941,61.795264175257735,1.0120692148651045
8,8.0,0.6452046958441587,65.00281894329896,0.9882345611287147
9,9.0,0.6722012120731098,59.15351159793814,0.9820677060441872
10,10.0,0.6662494216075877,60.59721327319588,0.9480699823074734
11,11.0,0.673326013321729,58.71657538659794,0.9366913861835126
12,12.0,0.6766827017376104,57.62926868556701,0.9307865273092211
13,13.0,0.6694019742540478,58.766913659793815,0.9350097425205192
14,14.0,0.6621007608998682,60.238804768041234,0.9842605203697362
15,15.0,0.665777949942756,59.27633698453608,1.0520268512755324
16,16.0,0.6543024034844231,61.96842783505155,1.1150359757167776
17,17.0,0.668003137425049,58.60583118556701,1.0920528370080536
18,18.0,0.6747773189827339,57.93532538659794,1.0178014138310225
19,19.0,0.6654793217624586,59.76361146907217,1.0052624099033396
20,20.0,0.666169196520884,58.56757409793814,1.0114902374670678
21,21.0,0.668167804319834,58.45078930412371,1.0013201752888787
22,22.0,0.6638354796570601,59.300499355670105,1.1224843730631562
23,23.0,0.6594935769272834,59.91261275773196,1.0423999324287336
24,24.0,0.6633564909708869,59.08907860824742,1.0234255329849793
25,25.0,0.6645010812688119,58.599790592783506,1.0167265171857225
26,26.0,0.6541817581530699,61.34423324742268,1.1150761271260448
27,27.0,0.6511646037556461,61.70264175257732,1.0899959157422645
28,28.0,0.668609516522319,58.660196520618555,1.0480784497310205
29,29.0,0.6566684338235363,60.683795103092784,1.044348467256605
30,30.0,0.655861136993182,61.12475837628866,1.1245934766592438
31,31.0,0.6583554856863219,59.59447487113402,1.0858980816664154
32,32.0,0.6542753409786323,60.86501288659794,1.072015993988391
33,33.0,0.6528044349139499,60.79655283505155,1.110716856017555
34,34.0,0.6466344430581811,61.20127255154639,1.0584140714910841
35,35.0,0.6565433418013386,60.43009020618557,1.0930874464438134
36,36.0,0.6473245060013741,61.45095038659794,1.0816972120520996
37,37.0,0.660316235779487,59.63071842783505,1.083448740010409
38,38.0,0.6527955805517963,60.665673324742265,1.07991189379053
39,39.0,0.6509273500786614,61.014014175257735,1.0795887057314213
40,40.0,0.6538481595589942,61.02609536082474,1.1097719251495046
41,41.0,0.64421277178317,61.46101804123711,1.0917579285877268
42,42.0,0.6553871648520538,60.01328930412371,1.0763620537580902
43,43.0,0.6454545350111637,61.89594072164948,1.0845008805855034
44,44.0,0.6440016859278237,61.62814110824742,1.0794562439328617
45,45.0,0.6407733840733459,62.558392396907216,1.0991122857811524
46,46.0,0.6400442253990272,62.582554768041234,1.1171124374743588
47,47.0,0.641848201911474,62.1436050257732,1.1007135135611308
48,48.0,0.6369910335417875,62.75974548969072,1.123228780387603
49,49.0,0.6445843414547517,62.034874355670105,1.097044036560452
50,50.0,0.6374430363018488,62.566446520618555,1.1417670716944428
51,51.0,0.6293079602656905,63.83899806701031,1.1459752800538368
52,52.0,0.6416756000715432,62.175821520618555,1.1373335694529347
53,53.0,0.6281766415256815,63.9014175257732,1.1551112428153913
54,54.0,0.6333401110983387,63.23695231958763,1.1384458167036784
55,55.0,0.6414978144709597,62.48187822164948,1.1334828052324117
56,56.0,0.642708798351976,62.34093105670103,1.125591141046937
57,57.0,0.6303913857519012,63.81483569587629,1.131707046449799
58,58.0,0.6318927189124,63.756443298969074,1.1470098169808536
59,59.0,0.6274669219538108,64.0685405927835,1.160890047083196
60,60.0,0.6291881790480662,64.12089239690722,1.1679733389431668
61,61.0,0.624225783747496,64.83368234536083,1.1929661090841
62,62.0,0.628300706903959,64.58803157216495,1.1817929406755978
63,63.0,0.6243700497236448,64.88603414948453,1.192024315140911
64,64.0,0.6188572067575356,65.49613402061856,1.21133480858557
65,65.0,0.6186166783583533,65.04308956185567,1.2226598957150252
66,66.0,0.618336448657144,65.1941043814433,1.2267287846693058
67,67.0,0.6123438073495,65.70352770618557,1.236882147100783
68,68.0,0.6183504632760569,65.19813144329896,1.2429894761940867
69,69.0,0.6155658660782981,65.55855347938144,1.243731106679464
70,70.0,0.6108482212749953,65.91897551546391,1.2600483513370002
71,71.0,0.610445798211491,66.02367912371135,1.2527428926880826
72,72.0,0.6110020057135022,65.80017719072166,1.2600849092621165
73,73.0,0.6059760432882407,66.70827963917526,1.2683810241443594
74,74.0,0.5995672246844498,67.24991945876289,1.312856059713462
75,75.0,0.6066184755145889,66.46061533505154,1.3035958943907748
76,76.0,0.599736849979027,67.17743234536083,1.317425924478118
77,77.0,0.5997818772940292,67.63249033505154,1.297710647288057
78,78.0,0.588910671392667,68.27480670103093,1.3284728428752153
79,79.0,0.589874578351827,68.3533344072165,1.3180846860728312
80,80.0,0.5856734634060221,68.68758054123711,1.3584673453852074
81,81.0,0.5860932874925358,68.47817332474227,1.3763187976227593
82,82.0,0.5840013853667938,68.77214884020619,1.3858537145496643
83,83.0,0.5783547705289015,69.42050579896907,1.3881648311909942
84,84.0,0.5770699380292106,69.57554768041237,1.4150067199136793
85,85.0,0.5698700378236082,69.85140141752578,1.4329790798659177
86,86.0,0.5768727466617662,69.71649484536083,1.4387684052752465
87,87.0,0.5756720121681076,69.4909793814433,1.418966659565562
88,88.0,0.5695053604767495,70.1574581185567,1.4485447517375356
89,89.0,0.5623566830895611,70.66688144329896,1.4746238914961667
90,90.0,0.5554435243926097,71.16623711340206,1.4958753622684282
91,91.0,0.5557391305559689,71.08972293814433,1.5189402324637187
92,92.0,0.5531010392707648,71.3816849226804,1.533732743607354
93,93.0,0.5443857432026225,72.04615012886597,1.5740884861995263
94,94.0,0.5421472669569487,72.23944909793815,1.5885359061133002
95,95.0,0.538318066560116,72.87169780927834,1.6030596765046268
96,96.0,0.5351684774012909,72.72672358247422,1.6341835198943149
97,97.0,0.5307097110858897,73.42340528350516,1.6549784092559028
98,98.0,0.5321131466897493,73.0811050257732,1.643485773469984
99,99.0,0.5292139336005929,73.48179768041237,1.6769130586348857
100,100.0,0.5203836703116131,74.0918975515464,1.692816489750577
